<?xml version="1.0" encoding="utf-8"?>
<!-- Generator: Adobe Illustrator 21.1.0, SVG Export Plug-In . SVG Version: 6.00 Build 0)  -->
<svg version="1.1" id="Layer_1" xmlns="http://www.w3.org/2000/svg" xmlns:xlink="http://www.w3.org/1999/xlink" x="0px" y="0px"
	 viewBox="0 0 24 24" style="enable-background:new 0 0 24 24;" xml:space="preserve">
<style type="text/css">
	.st0{fill:none;}
	.st1{fill:#FF7A7A;}
</style>
<title>delete_ico_24</title>
<rect id="Bound" class="st0" width="24" height="24"/>
<path class="st1" d="M19,6.3h-5.1V5c0-0.3-0.2-0.5-0.5-0.5h-2.8c-0.3,0-0.5,0.2-0.5,0.5v1.3h-5c-0.3,0-0.5,0.2-0.5,0.5
	s0.2,0.5,0.5,0.5h1.3v13.2c0,0.3,0.2,0.5,0.5,0.5h10.2c0.3,0,0.5-0.2,0.5-0.5V7.3H19c0.3,0,0.5-0.2,0.5-0.5S19.2,6.3,19,6.3z
	 M11.1,5.5h1.8v0.7h-1.8V5.5z M16.6,20H7.4V7.3h9.2V20z"/>
<path class="st1" d="M10,18.2c0.3,0,0.5-0.2,0.5-0.5V9.4c0-0.3-0.2-0.5-0.5-0.5S9.5,9.1,9.5,9.4v8.4C9.5,18,9.7,18.2,10,18.2z"/>
<path class="st1" d="M14,18.2c0.3,0,0.5-0.2,0.5-0.5V9.4c0-0.3-0.2-0.5-0.5-0.5s-0.5,0.2-0.5,0.5v8.4C13.5,18,13.7,18.2,14,18.2z"/>
</svg>
